Division,WeightClassKg,Place,Name,Team,BodyweightKg,Best3SquatKg,Best3BenchKg,Best3DeadliftKg,TotalKg,Equipment,Event,Sex
Boys,51.71,1,Roberto Ortiz,Alvarado,50.53,122.47,63.5,124.74,310.71,Single-ply,SBD,M
Boys,51.71,2,Zander Henderson,Troy,47.63,97.52,52.16,102.06,251.74,Single-ply,SBD,M
Boys,51.71,3,Robert Llewellyn,Chilton,46.63,79.38,43.09,97.52,219.99,Single-ply,SBD,M
Boys,51.71,DQ,Keegan Mantanona,Salado,50.26,95.25,,83.91,,Single-ply,SBD,M
Boys,55.79,1,Brady Bearden,Troy,54.98,127.01,88.45,136.08,351.53,Single-ply,SBD,M
Boys,55.79,2,Jair Perez,Little River Academy,55.79,122.47,79.38,136.08,337.93,Single-ply,SBD,M
Boys,55.79,3,Shane Christensen,Troy,52.71,52.16,36.29,65.77,154.22,Single-ply,SBD,M
Boys,59.87,1,Joe Rangel,Cameron Yoe,59.15,156.49,83.91,190.51,430.91,Single-ply,SBD,M
Boys,59.87,2,Joshua Lopez,Cameron Yoe,58.06,158.76,99.79,170.1,428.64,Single-ply,SBD,M
Boys,59.87,3,Juan Araujo,Taylor,59.87,158.76,77.11,167.83,403.7,Single-ply,SBD,M
Boys,59.87,4,William Bradley,Little River Academy,59.78,117.93,90.72,154.22,362.87,Single-ply,SBD,M
Boys,59.87,5,Andrew Chaffin,Little River Academy,59.69,120.2,72.57,136.08,328.85,Single-ply,SBD,M
Boys,59.87,6,Colby Williamson,Troy,59.87,131.54,70.31,113.4,315.25,Single-ply,SBD,M
Boys,59.87,7,Horacio Huerta,Salado,56.06,117.93,70.31,124.74,312.98,Single-ply,SBD,M
Boys,59.87,8,Dylan Charles,Gatesville,56.7,117.93,63.5,129.27,310.71,Single-ply,SBD,M
Boys,59.87,9,Braydenn Cato,Troy,59.69,97.52,61.23,136.08,294.84,Single-ply,SBD,M
Boys,59.87,10,Lance Salvador,Troy,59.87,74.84,52.16,124.74,251.74,Single-ply,SBD,M
Boys,59.87,DQ,Jackson Williams,Manor New Tech,58.15,,,,,Single-ply,SBD,M
Boys,67.13,1,Treston Hudnall,Killeen Ellison,63.87,195.04,136.08,204.12,535.24,Single-ply,SBD,M
Boys,67.13,2,Stephen Leal,Taylor,65.41,215.46,104.33,192.78,512.56,Single-ply,SBD,M
Boys,67.13,3,Ricardo Alvarez,Alvarado,66.95,188.24,111.13,204.12,503.49,Single-ply,SBD,M
Boys,67.13,4,Gavin Freeman,Little River Academy,66.5,192.78,115.67,192.78,501.22,Single-ply,SBD,M
Boys,67.13,5,Fabian Salomon,Cameron Yoe,66.13,156.49,95.25,181.44,433.18,Single-ply,SBD,M
Boys,67.13,6,Anthony Seider,Lometa,65.77,149.69,92.99,176.9,419.57,Single-ply,SBD,M
Boys,67.13,7,Daniel Strong,Killeen Ellison,66.13,145.15,86.18,170.1,401.43,Single-ply,SBD,M
Boys,67.13,8,Malik Thomas,Cameron Yoe,64.05,156.49,97.52,145.15,399.16,Single-ply,SBD,M
Boys,67.13,9,Dakota Schramm,Gatesville,63.68,136.08,83.91,167.83,387.82,Single-ply,SBD,M
Boys,67.13,10,Jonathan McCullough,Gatesville,64.32,140.61,83.91,149.69,374.21,Single-ply,SBD,M
Boys,67.13,11,Justin Smith #15,Franklin,61.6,124.74,70.31,161.03,356.07,Single-ply,SBD,M
Boys,67.13,12,Christian Ramos,Gatesville,66.5,102.06,79.38,136.08,317.51,Single-ply,SBD,M
Boys,67.13,13,Daylon Cromer,Chilton,65.77,102.06,77.11,136.08,315.25,Single-ply,SBD,M
Boys,67.13,14,Haze Tumasik,Franklin,66.77,111.13,61.23,133.81,306.17,Single-ply,SBD,M
Boys,67.13,15,Shawn Gustavus,Franklin,66.77,113.4,68.04,120.2,301.64,Single-ply,SBD,M
Boys,67.13,16,Benjamin Perez,Manor New Tech,66.5,106.59,70.31,102.06,278.96,Single-ply,SBD,M
Boys,67.13,17,Chester Albin,Gatesville,65.14,92.99,65.77,115.67,274.42,Single-ply,SBD,M
Boys,67.13,18,Jarian Green,Killeen Ellison,61.23,92.99,65.77,104.33,263.08,Single-ply,SBD,M
Boys,74.84,1,Yakariel Young,Killeen Ellison,74.66,244.94,129.27,249.48,623.69,Single-ply,SBD,M
Boys,74.84,2,Hugh Shelton,Taylor,71.85,201.85,115.67,229.06,546.58,Single-ply,SBD,M
Boys,74.84,3,Dorian Armstrong,Killeen Ellison,73.39,158.76,79.38,172.37,410.5,Single-ply,SBD,M
Boys,74.84,4,Daniel Frisby,Salado,67.68,120.2,70.31,129.27,319.78,Single-ply,SBD,M
Boys,74.84,5,Trey Watson,Rosebud-Lott,71.85,136.08,77.11,97.52,310.71,Single-ply,SBD,M
Boys,74.84,6,Sam Lewis,Troy,74.57,104.33,79.38,124.74,308.44,Single-ply,SBD,M
Boys,82.1,1,Tyler Burt,Cameron Yoe,79.47,199.58,117.93,185.97,503.49,Single-ply,SBD,M
Boys,82.1,2,Adrien Garcia,Little River Academy,80.01,181.44,108.86,208.65,498.95,Single-ply,SBD,M
Boys,82.1,3,Santos Lacewall,Killeen Ellison,81.1,176.9,99.79,195.04,471.74,Single-ply,SBD,M
Boys,82.1,4,Hunter Turk,Salado,75.48,174.63,99.79,158.76,433.18,Single-ply,SBD,M
Boys,82.1,5,Hunter Martin,Troy,79.29,161.03,102.06,158.76,421.84,Single-ply,SBD,M
Boys,82.1,6,Greg Washington,Salado,75.02,154.22,90.72,156.49,401.43,Single-ply,SBD,M
Boys,82.1,7,Sam Taggart,Rosebud-Lott,77.75,129.27,70.31,138.35,337.93,Single-ply,SBD,M
Boys,82.1,DQ,Colby Hentry,Lometa,80.29,167.83,,192.78,,Single-ply,SBD,M
Boys,82.1,DQ,Tyler Lambert,Little River Academy,79.42,145.15,,195.04,,Single-ply,SBD,M
Boys,82.1,DQ,Pat England,Cameron Yoe,78.56,165.56,108.86,,,Single-ply,SBD,M
Boys,89.81,1,Connor Cook,Salado,85.09,197.31,122.47,219.99,539.77,Single-ply,SBD,M
Boys,89.81,2,Xander Webb,Alvarado,88.81,204.12,124.74,199.58,528.44,Single-ply,SBD,M
Boys,89.81,3,James Williams #16,Killeen Ellison,85.46,174.63,88.45,174.63,437.72,Single-ply,SBD,M
Boys,89.81,4,Joe Squiers,Franklin,83.82,158.76,95.25,158.76,412.77,Single-ply,SBD,M
Boys,89.81,5,Toby Szustack,Gatesville,89.81,147.42,102.06,149.69,399.16,Single-ply,SBD,M
Boys,89.81,6,Logan Portillo,Rosebud-Lott,89.36,147.42,102.06,147.42,396.89,Single-ply,SBD,M
Boys,89.81,7,Jordan Rios,Manor New Tech,86.27,142.88,83.91,147.42,374.21,Single-ply,SBD,M
Boys,89.81,DQ,Nathaniel Silva,Manor New Tech,84.46,,56.7,,,Single-ply,SBD,M
Boys,89.81,DQ,Ulicies Cardona,Cameron Yoe,88.99,181.44,122.47,,,Single-ply,SBD,M
Boys,99.79,1,Eduardo Gil,Cameron Yoe,94.62,192.78,142.88,183.7,519.36,Single-ply,SBD,M
Boys,99.79,2,Joe Sampson,Salado,97.98,197.31,127.01,183.7,508.02,Single-ply,SBD,M
Boys,99.79,3,Ezekiel Sheridan,Killeen Ellison,94.98,151.95,102.06,210.92,464.93,Single-ply,SBD,M
Boys,99.79,4,Joseph Vega,Franklin,93.98,156.49,92.99,163.29,412.77,Single-ply,SBD,M
Boys,99.79,5,Antonio Ramirez,Alvarado,94.17,142.88,90.72,158.76,392.36,Single-ply,SBD,M
Boys,99.79,DQ,Daniel Alden-Cortinos,Manor New Tech,94.26,,74.84,163.29,,Single-ply,SBD,M
Boys,109.77,1,Chandler Strmiska,Little River Academy,106.59,265.35,219.99,258.55,743.89,Single-ply,SBD,M
Boys,109.77,2,Wyatt Gardner,Little River Academy,108.41,213.19,156.49,247.21,616.89,Single-ply,SBD,M
Boys,109.77,3,Jacob Snoddy,Gatesville,108.05,229.06,165.56,219.99,614.62,Single-ply,SBD,M
Boys,109.77,4,Connor Laughrin,Gatesville,102.24,204.12,122.47,197.31,523.9,Single-ply,SBD,M
Boys,109.77,5,Michael Griego,Gatesville,106.14,188.24,124.74,210.92,523.9,Single-ply,SBD,M
Boys,109.77,6,Tommie Barker,Salado,105.87,183.7,131.54,197.31,512.56,Single-ply,SBD,M
Boys,109.77,7,Cade Mars,Cameron Yoe,102.15,204.12,108.86,197.31,510.29,Single-ply,SBD,M
Boys,109.77,8,Ryan Poe,Salado,109.32,190.51,127.01,183.7,501.22,Single-ply,SBD,M
Boys,109.77,9,Alex Williams,Gatesville,109.41,183.7,106.59,174.63,464.93,Single-ply,SBD,M
Boys,109.77,10,Blake Madden,Salado,101.24,181.44,111.13,170.1,462.66,Single-ply,SBD,M
Boys,109.77,11,Cody Duewall,Franklin,109.59,179.17,113.4,170.1,462.66,Single-ply,SBD,M
Boys,109.77,DQ,Dominic Lewis,Cameron Yoe,108.41,,,,,Single-ply,SBD,M
Boys,124.74,1,Jim Hitchcock,Gatesville,123.38,265.35,151.95,249.48,666.78,Single-ply,SBD,M
Boys,124.74,2,Crispin Salanas,Chilton,118.84,229.06,145.15,229.06,603.28,Single-ply,SBD,M
Boys,124.74,3,Jose Gonzalez,Chilton,121.11,183.7,115.67,206.38,505.76,Single-ply,SBD,M
Boys,124.74,4,Robert Tihajero,Manor New Tech,110.5,136.08,90.72,183.7,410.5,Single-ply,SBD,M
Boys,124.74,DQ,Nathan Vilchez,Killeen Ellison,119.84,226.8,111.13,,,Single-ply,SBD,M
Boys,124.74,DQ,Trace Lopez,Taylor,123.83,201.85,,,,Single-ply,SBD,M
Boys,124.74+,1,Chapman Rowe,Killeen Ellison,145.78,249.48,129.27,226.8,605.55,Single-ply,SBD,M
Boys,124.74+,2,Ian McDonald,Troy,130.36,204.12,124.74,192.78,521.63,Single-ply,SBD,M
Boys,124.74+,3,Keanu Ramirez,Killeen Ellison,154.22,179.17,136.08,192.78,508.02,Single-ply,SBD,M
Boys,124.74+,4,Will Scott,Cameron Yoe,126.28,199.58,113.4,183.7,496.68,Single-ply,SBD,M
Boys,124.74+,5,Chris Vasquez,Chilton,127.1,183.7,83.91,183.7,451.32,Single-ply,SBD,M
Boys,124.74+,6,Jacob Nutt,Rosebud-Lott,132.36,142.88,90.72,147.42,381.02,Single-ply,SBD,M
Boys,124.74+,DQ,Gavyn Keyser,Salado,135.99,,113.4,,,Single-ply,SBD,M
