Name,Age,Sex,Equipment,Division,BodyweightKg,WeightClassKg,Squat1Kg,Squat2Kg,Squat3Kg,Squat4Kg,Best3SquatKg,Bench1Kg,Bench2Kg,Bench3Kg,Bench4Kg,Best3BenchKg,Deadlift1Kg,Deadlift2Kg,Deadlift3Kg,Deadlift4Kg,Best3DeadliftKg,TotalKg,Place,Event,Tested
Dale Garlitz,66,M,Wraps,M_MCR_6_AAPF,66.9,67.5,155,165,-172.5,,165,97.5,102.5,107.5,-110,107.5,155,165,-172.5,,165,437.5,1,SBD,Yes
Rudy Ruettiger,61,M,Multi-ply,M_MEM_5_AAPF,81.5,82.5,227.5,280,285,,285,97.5,-142.5,157.5,162.5,157.5,205,-227.5,-227.5,,205,647.5,1,SBD,Yes
Monte Davis,62,M,Wraps,M_MCR_5_AAPF,97.5,100,130,145,155,160,155,85,92.5,97.5,,97.5,165,175,182.5,,182.5,435,1,SBD,Yes
Jeremy Walker,34,M,Wraps,M_SCR_AAPF,89.6,90,180,192.5,197.5,200,197.5,130,-145,-145,,130,227.5,240,-252.5,,240,567.5,1,SBD,Yes
Derek Fitzpatrick,23,M,Wraps,M_JCR_AAPF,121.3,125,160,182.5,195,200,195,105,117.5,137.5,-145,137.5,182.5,205,225,-235,225,557.5,1,SBD,Yes
Kyle Young,32,M,Multi-ply,M_OEM_AAPF,73.9,75,-255,255,272.5,,272.5,102.5,140,145,,145,247.5,257.5,-265,,257.5,675,1,SBD,Yes
Hector Alcayde,25,M,Wraps,M_OCR_AAPF,67.1,67.5,175,190,197.5,,197.5,97.5,102.5,107.5,,107.5,207.5,217.5,227.5,,227.5,532.5,1,SBD,Yes
Patrick Ward,27,M,Wraps,M_OCR_AAPF,81,82.5,130,137.5,145,150,145,120,-122.5,-122.5,,120,175,182.5,-187.5,,182.5,447.5,1,SBD,Yes
Anthony Lockhart,25,M,Wraps,M_OCR_AAPF,132.8,140,205,230,242.5,250,242.5,165,175,-182.5,,175,225,245,252.5,-280,252.5,670,1,SBD,Yes
Glenn Campbell,26,M,Wraps,M_OCR_AAPF,139.5,140,180,200,225,,225,107.5,117.5,137.5,,137.5,247.5,265,277.5,287.5,277.5,640,2,SBD,Yes
Dale Garlitz,66,M,Raw,M_MCR_6_AAPF,66.9,67.5,,,,,,97.5,102.5,107.5,-110,107.5,,,,,,107.5,1,B,Yes
Doug Ward,66,M,Raw,M_MCR_6_AAPF,102.5,110,,,,,,47.5,-55,-55,,47.5,,,,,,47.5,1,B,Yes
Bob Baker,59,M,Single-ply,M_MES_4_AAPF,79.8,82.5,,,,,,140,142.5,145,,145,,,,,,145,1,B,Yes
Ken Wentworth,45,M,Multi-ply,M_MEM_2_AAPF,82.3,82.5,,,,,,-182.5,-182.5,-192.5,,,,,,,,,DQ,B,Yes
Nathan Aichele,34,M,Raw,M_SR_AAPF,89.7,90,,,,,,152.5,162.5,-175,,162.5,,,,,,162.5,1,B,Yes
Doug Ward,66,M,Raw,M_MCR_6_AAPF,102.5,110,,,,,,,,,,,62.5,67.5,72.5,,72.5,72.5,1,D,Yes
Doug Clayton,59,M,Single-ply,M_MES_4_AAPF,86.4,90,,,,,,,,,,,200,212.5,220,-227.5,220,220,1,D,Yes
Jeremy Walker,34,M,Raw,M_SCR_AAPF,89.6,90,,,,,,,,,,,227.5,240,-252.5,,240,240,1,D,Yes
Nathan Aichele,34,M,Raw,M_SR_AAPF,89.7,90,,,,,,,,,,,220,-235,-250.5,,220,220,1,D,Yes
Doug Clayton,59,M,Single-ply,M_OES_AAPF,86.4,90,,,,,,,,,,,200,212.5,220,-227.5,220,220,1,D,Yes
Kyle Young,32,M,Multi-ply,M_OEM_AAPF,73.9,75,,,,,,,,,,,247.5,257.5,-265,,257.5,257.5,1,D,Yes
Glenn Campbell,26,M,Raw,M_OCR_AAPF,139.5,140,,,,,,,,,,,247.5,265,277.5,287.5,277.5,277.5,1,D,Yes
Jodi Wenzel-Parker,51,F,Wraps,F_MCR_3_AAPF,60.8,67.5,70,75,-92.5,,75,47.5,-55,55,,55,87.5,100,-107.5,,100,230,1,SBD,Yes
Charlie Ritchie,44,F,Wraps,F_MCR_1_AAPF,79.4,82.5,82.5,102.5,-115,,102.5,72.5,75,82.5,,82.5,130,135,137.5,145,137.5,322.5,1,SBD,Yes
Brenda Bowen,43,F,Raw,F_MR_1_AAPF,85.9,90,75,120,127.5,130,127.5,60,-70,70,-72.5,70,100,137.5,-142.5,,137.5,335,1,SBD,Yes
Christy James,40,F,Raw,F_MR_1_AAPF,85.1,90,87.5,102.5,115,,115,50,-60,60,,60,125,140,155,,155,330,2,SBD,Yes
Kylee Sims,33,F,Wraps,F_SCR_AAPF,77.2,82.5,45,52.5,60,,60,52.5,57.5,-62.5,,57.5,110,-132.5,132.5,-142.5,132.5,250,1,SBD,Yes
Michelle Sosnine,20,F,Wraps,F_JCR_AAPF,51,52,87.5,97.5,-102.5,,97.5,50,55,57.5,60,57.5,85,87.5,-90,,87.5,242.5,1,SBD,Yes
Karlee Wilkes,30,F,Wraps,F_OCR_AAPF,55.6,56,70,75,80,82.5,80,-55,57.5,-62.5,,57.5,-105,105,107.5,110,107.5,245,1,SBD,Yes
Shelby Lockhart,25,F,Wraps,F_OCR_AAPF,71,75,110,120,125,132.5,125,57.5,62.5,-70,,62.5,130,152.5,153,162.5,153,340.5,1,SBD,Yes
Jasmine Howes,25,F,Wraps,F_OCR_AAPF,69.7,75,57.5,80,102.5,-107.5,102.5,42.5,-52.5,55,,55,85,-100,110,-117.5,110,267.5,2,SBD,Yes
Brenda Bowen,43,F,Raw,F_OR_AAPF,85.9,90,75,120,127.5,130,127.5,60,-70,70,-72.5,70,100,137.5,-142.5,,137.5,335,1,SBD,Yes
Austin Foster,18,M,Wraps,M_TCR_3_AAPF,77,82.5,115,150,170,180,170,82.5,105,-110,,105,142.5,177.5,185,190,185,460,1,SBD,Yes
Hayden Brown,18,M,Wraps,M_TCR_3_AAPF,98.4,100,165,182.5,190,-193,190,115,-122.5,-122.5,,115,205,-227.5,227.5,-230,227.5,532.5,1,SBD,Yes
Brady Stevens,19,M,Wraps,M_TCR_3_AAPF,97.9,100,147.5,170,185,192.5,185,105,120,-135,,120,200,215,220,-230,220,525,2,SBD,Yes
Alex Valls,18,M,Raw,M_TR_3_AAPF,89.4,90,182.5,190,192.5,,192.5,112.5,122.5,-125,,122.5,225,235,240,,240,555,1,SBD,Yes
Jacob Neumann,16,M,Raw,M_TR_2_AAPF,98.1,100,50,62.5,65,,65,60,70,-72.5,,70,102.5,112.5,115,,115,250,1,SBD,Yes
Hunter Brown,15,M,Wraps,M_TCR_1_AAPF,71.9,75,135,150,-165,,150,80,92.5,-100,,92.5,130,155,160,167.5,160,402.5,1,SBD,Yes
Charlie Ritchie,44,F,Raw,F_MCR_1_AAPF,79.4,82.5,,,,,,72.5,75,82.5,,82.5,,,,,,82.5,1,B,Yes
Brenda Bowen,43,F,Raw,F_MR_1_AAPF,85.9,90,,,,,,60,-70,70,-72.5,70,,,,,,70,1,B,Yes
Kylee Sims,33,F,Raw,F_SCR_AAPF,77.2,82.5,,,,,,52.5,57.5,-62.5,,57.5,,,,,,57.5,1,B,Yes
Whitney Griffin,20,F,Raw,F_JR_AAPF,73.5,75,,,,,,62.5,70,-72.5,,70,,,,,,70,1,B,Yes
Ian Cox,19,M,Raw,M_TCR_3_AAPF,81,82.5,,,,,,85,-107.5,110,-115,110,,,,,,110,1,B,Yes
Jacob Neumann,16,M,Raw,M_TR_2_AAPF,98.1,100,,,,,,60,70,-72.5,,70,,,,,,70,1,B,Yes
Holden Brown,12,M,Raw,M_YR_AAPF,71.1,75,,,,,,35,47.5,-52.5,,47.5,,,,,,47.5,1,B,Yes
Jodi Wenzel-Parker,51,F,Raw,F_MCR_3_AAPF,60.8,67.5,,,,,,,,,,,87.5,100,-107.5,,100,100,1,D,Yes
Tina Puckett,47,F,Raw,F_MR_2_AAPF,77.2,82.5,,,,,,,,,,,115,125,130,-135,130,130,1,D,Yes
Charlie Ritchie,44,F,Raw,F_MCR_1_AAPF,79.4,82.5,,,,,,,,,,,130,135,137.5,145,137.5,137.5,1,D,Yes
Brenda Bowen,43,F,Raw,F_MR_1_AAPF,85.9,90,,,,,,,,,,,100,137.5,-142.5,,137.5,137.5,1,D,Yes
Kylee Sims,33,F,Raw,F_SCR_AAPF,77.2,82.5,,,,,,,,,,,110,-132.5,132.5,-142.5,132.5,132.5,1,D,Yes
Aspen Seward,14,F,Raw,F_TR_1_AAPF,71.1,75,,,,,,,,,,,75,82.5,87.5,90,87.5,87.5,1,D,Yes
Bri Molina,15,F,Raw,F_TR_1_AAPF,102.3,90+,,,,,,,,,,,102.5,120,132.5,137.5,132.5,132.5,1,D,Yes
Shelby Lockhart,25,F,Raw,F_OCR_AAPF,71,75,,,,,,,,,,,130,152.5,153,162.5,153,153,1,D,Yes
Ian Cox,19,M,Raw,M_TCR_3_AAPF,81,82.5,,,,,,,,,,,185,200,-210,,200,200,1,D,Yes
Alex Valls,18,M,Raw,M_TR_3_AAPF,89.4,90,,,,,,,,,,,225,235,240,,240,240,1,D,Yes
Dominic Garza,16,M,Raw,M_TR_2_AAPF,68.9,75,,,,,,,,,,,125,142.5,147.5,,147.5,147.5,1,D,Yes
Jacob Neumann,16,M,Raw,M_TR_2_AAPF,98.1,100,,,,,,,,,,,102.5,112.5,115,,115,115,1,D,Yes
Carl Capps,16,M,Raw,M_TR_2_AAPF,103.7,110,,,,,,,,,,,125,147.5,-177.5,,147.5,147.5,1,D,Yes
Kayden Lemons,15,M,Raw,M_TR_1_AAPF,60.8,67.5,,,,,,,,,,,115,122.5,135,,135,135,1,D,Yes
Holden Brown,12,M,Raw,M_YR_AAPF,71.1,75,,,,,,,,,,,65,85,92.5,,92.5,92.5,1,D,Yes
Richard Neumann,59,M,Raw,M_MR_4_AAPF,88.5,90,125,,,,125,110,117.5,,,117.5,165,,,,165,407.5,1,SBD,Yes
Paul Coats,49,M,Raw,M_MR_2_AAPF,81.3,82.5,187.5,195,200,,200,125,130,-135,,130,235,-245,-247.5,,235,565,1,SBD,Yes
Jason Worthen,40,M,Raw,M_MR_1_AAPF,116.3,125,222.5,240,252.5,,252.5,172.5,185,-195.5,,185,245,265,-277.5,,265,702.5,1,SBD,Yes
Doug Hulett,40,M,Raw,M_MR_1_AAPF,129.1,140,145,182.5,192.5,,192.5,120,150,160,,160,220,265,-275,,265,617.5,1,SBD,Yes
Chris Lindsay,39,M,Raw,M_SR_AAPF,55,56,142.5,155,162.5,167.5,162.5,77.5,82.5,87.5,,87.5,185,195,200,205,200,450,1,SBD,Yes
Benjamin Gonzalez,38,M,Raw,M_SR_AAPF,65.8,67.5,122.5,130,137.5,,137.5,-82.5,82.5,-87.5,,82.5,182.5,190,195,200,195,415,1,SBD,Yes
Robert Bain,33,M,Raw,M_SR_AAPF,109.7,110,265,282.5,-290,,282.5,147.5,155,-162.5,,155,290,-310,-310,,290,727.5,1,SBD,Yes
Brian Saxton,37,M,Raw,M_SR_AAPF,158.5,140+,260,272.5,-300,,272.5,155,165,-177.5,,165,-255,-255,-265,,,,DQ,SBD,Yes
Chris Lindsay,39,M,Raw,M_OR_AAPF,55,56,142.5,155,162.5,167.5,162.5,77.5,82.5,87.5,,87.5,185,195,200,205,200,450,1,SBD,Yes
Sean Leadbetter,25,M,Raw,M_OR_AAPF,67.2,67.5,147.5,160,-167.5,,160,102.5,-112.5,,,102.5,210,222.5,-230,,222.5,485,1,SBD,Yes
Ethan Radin,24,M,Raw,M_OR_AAPF,74.1,75,167.5,175,-182.5,,175,125,130,-135,,130,207.5,-220,-227.5,,207.5,512.5,1,SBD,Yes
David Robinson,30,M,Raw,M_OR_AAPF,82.2,82.5,142.5,170,192.5,,192.5,117.5,145,155,,155,182.5,200,-235,,200,547.5,1,SBD,Yes
Nicholas Thimons,36,M,Raw,M_OR_AAPF,88.4,90,237.5,252.5,257.5,,257.5,160,167.5,175,,175,237.5,250,-257.5,,250,682.5,1,SBD,Yes
Robert Bain,33,M,Raw,M_OR_AAPF,109.7,110,265,282.5,-290,,282.5,147.5,155,-162.5,,155,290,-310,-310,,290,727.5,1,SBD,Yes
Brian Saxton,37,M,Raw,M_OR_AAPF,158.5,140+,260,272.5,-300,,272.5,155,165,-177.5,,165,-255,-255,-265,,,,DQ,SBD,Yes
Chris Williams #1,57,M,Raw,M_MR_4_AAPF,88.2,90,,,,,,107.5,115,125,,125,,,,,,125,1,B,Yes
Alan Ford,50,M,Raw,M_MR_3_AAPF,80.8,82.5,,,,,,107.5,115,125,,125,,,,,,125,1,B,Yes
Jason Worthen,40,M,Raw,M_MR_1_AAPF,116.3,125,,,,,,172.5,185,-195.5,,185,,,,,,185,1,B,Yes
Alan Ford,50,M,Raw,M_OR_AAPF,80.8,82.5,,,,,,107.5,115,125,,125,,,,,,125,1,B,Yes
Chris Williams #1,57,M,Raw,M_OR_AAPF,88.2,90,,,,,,107.5,115,125,,125,,,,,,125,1,B,Yes
Russell Jardine,25,M,Raw,M_OR_AAPF,98.5,100,,,,,,160,170,-182.5,,170,,,,,,170,1,B,Yes
Richard Neumann,59,M,Raw,M_MR_4_AAPF,88.5,90,,,,,,,,,,,165,,,,165,165,1,D,Yes
Brian Walker,53,M,Raw,M_MR_3_AAPF,93.7,100,,,,,,,,,,,170,180,182.5,,182.5,182.5,1,D,Yes
Paul Coats,49,M,Raw,M_MR_2_AAPF,81.3,82.5,,,,,,,,,,,235,-245,-247.5,,235,235,1,D,Yes
Shaun Davis,44,M,Raw,M_MR_1_AAPF,88.4,90,,,,,,,,,,,272.5,-280,-280,,272.5,272.5,1,D,Yes
Jason Worthen,40,M,Raw,M_MR_1_AAPF,116.3,125,,,,,,,,,,,245,265,-277.5,,265,265,1,D,Yes
Benjamin Gonzalez,38,M,Raw,M_SR_AAPF,65.8,67.5,,,,,,,,,,,182.5,190,195,200,195,195,1,D,Yes
Robert Bain,33,M,Raw,M_SR_AAPF,109.7,110,,,,,,,,,,,290,-310,-310,,290,290,1,D,Yes
Brian Saxton,37,M,Raw,M_SR_AAPF,158.5,140+,,,,,,,,,,,-255,-255,-265,,,,DQ,D,Yes
Sean Leadbetter,25,M,Raw,M_OR_AAPF,67.2,67.5,,,,,,,,,,,210,222.5,-230,,222.5,222.5,1,D,Yes
Anthony Archebeta,21,M,Raw,M_OR_AAPF,72.1,75,,,,,,,,,,,185,202.5,227.5,,227.5,227.5,1,D,Yes
Robert Bain,33,M,Raw,M_OR_AAPF,109.7,110,,,,,,,,,,,290,-310,-310,,290,290,1,D,Yes
Dario Mikic,28,M,Raw,M_OR_AAPF,120.7,125,,,,,,,,,,,242.5,275,-282.5,,275,275,1,D,Yes
