Name,WeightClassKg,Division,Sex,Event,Equipment,Age,Best3SquatKg,Best3BenchKg,Bench4Kg,Best3DeadliftKg,TotalKg,BodyweightKg,Place
C. Bennett,60,Open,F,S,Single-ply,24,129.27,,,,129.27,,1
L. Gross,67.5,Submasters,F,S,Single-ply,35,129.27,,,,129.27,,1
Ken Snell,56,Open,M,S,Single-ply,31,183.71,,,,183.71,,1
Cory Aun,60,Teen 18-19,M,S,Single-ply,19,170.1,,,,170.1,,1
Mike Yost,67.5,Open,M,S,Single-ply,28,201.85,,,,201.85,,1
James Schall,75,Masters 70-74,M,S,Raw,70,92.99,,,,92.99,,1
Brian Strickland,82.5,Open,M,S,Single-ply,28,272.16,,,,272.16,,1
Virgil Diaz,82.5,Submasters,M,S,Single-ply,36,256.28,,,,256.28,,1
G. Rodgers,82.5,Masters 45-49,M,S,Raw,45,172.37,,,,172.37,,1
R. Lewis Sr,90,Masters 40-44,M,S,Single-ply,41,235.87,,,,235.87,,1
Burt Rosenfield,90,Masters 65-69,M,S,Single-ply,65,181.44,,,,181.44,,1
Larry Lee,110,Open,M,S,Single-ply,32,226.8,,,,226.8,,1
Moses Battles,145,Open,M,S,Single-ply,47,340.19,,,,340.19,,1
Scott Edminston,145,Open,M,S,Single-ply,34,328.85,,,,328.85,,2
Moses Battles,145,Masters 45-49,M,S,Single-ply,47,340.19,,,,340.19,,1
R. Granados,52,Open,F,B,Single-ply,36,,70.31,,,70.31,,1
R. Granados,52,Submasters,F,B,Single-ply,36,,70.31,,,70.31,,1
Yvette Vlack,56,Open,F,B,Raw,32,,72.57,,,72.57,,1
C. Bennett,60,Open,F,B,Single-ply,29,,70.31,,,70.31,,2
Katie Haynes,60,Open,F,B,Single-ply,32,,70.99,,,70.99,,1
L. Gross,67.5,Open,F,B,Single-ply,35,,81.65,,,81.65,,1
Jessica Wyman,90+,Open,F,B,Single-ply,26,,81.65,,,81.65,,1
S. Covington,90+,Open,F,B,Raw,30,,72.57,,,72.57,,1
Glenn Murphy,52,Submasters,M,B,Single-ply,38,,88.45,,,88.45,,1
Ken Snell,67,Submasters,M,B,Single-ply,39,,120.2,,,120.2,,1
Ryan Quartuccio,60,Teen 14-15,M,B,Single-ply,14,,65.77,,,65.77,,1
Mike Yost,67.5,Open,M,B,Single-ply,28,,154.22,,,154.22,,1
T. Niskoch,67.5,Open,M,B,Single-ply,32,,129.27,,,129.27,,2
R. Kelly,67.5,Juniors,M,B,Single-ply,21,,142.88,,,142.88,,1
P. Pope,67.5,Submasters,M,B,Single-ply,35,,111.13,,,111.13,,1
Baron Wyman,75,Open,M,B,Single-ply,32,,179.17,,,179.17,,1
Tom Plaitano,75,Open,M,B,Single-ply,33,,176.9,,,176.9,,2
J. Lawson,75,Open,M,B,Single-ply,35,,172.37,,,172.37,,3
Walter Lee,75,Open,M,B,Single-ply,30,,165.56,,,165.56,,4
Dan Maltese,75,Open,M,B,Single-ply,29,,63.5,,,63.5,,5
T. Ross,75,Masters 50-54,M,B,Single-ply,52,,147.42,,,147.42,,1
K. Stoner,75,Masters 40-44,M,B,Single-ply,40,,142.88,,,142.88,,1
T. Ross,75,Masters 50-54,M,B,Single-ply,52,,147.42,,,147.42,,2
B. Player,75,Masters 55-59,M,B,Single-ply,59,,131.54,,,131.54,,1
Jeff Lawson,75,Submasters,M,B,Single-ply,35,,172.37,,,172.37,,1
James Schall,75,Masters 70-74,M,B,Raw,70,,92.99,,,92.99,,1
Brian McDuffle,75,Submasters,M,B,Raw,36,,147.42,,,147.42,,1
Tony Stevens,82.5,Open,M,B,Single-ply,34,,199.58,,,199.58,,1
Tom Wright,82.5,Open,M,B,Single-ply,32,,188.24,,,188.24,,2
C. Zell,82.5,Open,M,B,Single-ply,23,,,,,,,DQ
M. Blizzard,82.5,Juniors,M,B,Single-ply,21,,183.71,,,183.71,,1
G. Shanholte,82.5,Masters 45-49,M,B,Single-ply,46,,161.03,,,161.03,,1
J. Mistsoulos,82.5,Masters 50-54,M,B,Single-ply,54,,158.76,,,158.76,,1
C. Baumohl,82.5,Masters 55-59,M,B,Single-ply,55,,156.49,,,156.49,,1
E. Foran,82.5,Masters 65-69,M,B,Single-ply,68,,102.06,,,102.06,,1
R. Conaway,82.5,Submasters,M,B,Single-ply,37,,185.97,,,185.97,,1
C. Heinlein,82.5,Masters 50-54,M,B,Raw,51,,122.47,,,122.47,,1
Dennis Cieri,90,Open,M,B,Single-ply,28,,240.4,,,240.4,,1
Rodney Johnson,90,Open,M,B,Single-ply,27,,217.72,,,217.72,,2
K. Conaway,90,Masters 40-44,M,B,Single-ply,41,,165.56,,,165.56,,1
D. Marinkovic,90,Masters 40-44,M,B,Single-ply,43,,156.49,,,156.49,,2
R. Lewis,90,Masters 40-44,M,B,Single-ply,41,,142.88,,,142.88,,3
Lewis Drodie,90,Masters 45-49,M,B,Single-ply,48,,176.9,,,176.9,,1
G. Stimme,90,Masters 60-64,M,B,Single-ply,61,,95.25,,,95.25,,1
Burt Rosenfield,90,Masters 65-69,M,B,Single-ply,65,,142.88,,,142.88,,1
D. Marinkovic,90,Masters 40-44,M,B,Raw,43,,156.49,,,156.49,,1
Robb Rosiewicz,100,Open,M,B,Single-ply,28,,192.78,,,192.78,,1
T. RoeFaro,100,Open,M,B,Single-ply,26,,181.44,,,181.44,,2
J. Hou-Seye,100,Open,M,B,Single-ply,30,,136.08,,,136.08,,3
C. Kelly,100,Masters 45-49,M,B,Single-ply,45,,158.76,,,158.76,,1
B. Poston,100,Masters 45-49,M,B,Single-ply,48,,124.74,,,124.74,,2
F. McBride,100,Masters 50-54,M,B,Single-ply,53,,145.15,,,145.15,,1
Bill Remley,100,Masters 65-69,M,B,Single-ply,67,,158.76,,,158.76,,1
J. Merlino,100,Teen 18-19,M,B,Single-ply,19,,158.76,,,158.76,,1
JG Allen,100,Masters 40-44,M,B,Raw,42,,190.51,,,190.51,,1
G. Miller,100,Masters 40-44,M,B,Raw,42,,140.61,,,140.61,,2
C. Kelly,100,Masters 45-49,M,B,Raw,45,,158.76,,,158.76,,1
B. Poston,100,Masters 45-49,M,B,Raw,48,,124.74,,,124.74,,2
Robert Fountain,110,Open,M,B,Single-ply,32,,222.26,,,222.26,,1
Bill Hawkens,110,Open,M,B,Single-ply,43,,208.65,,,208.65,,2
John Morgan,110,Open,M,B,Single-ply,29,,183.71,,,183.71,,3
Bill Hawkens,110,Masters 40-44,M,B,Single-ply,42,,208.65,,,208.65,,1
S. Maley,110,Masters 45-49,M,B,Single-ply,48,,142.88,,,142.88,,1
R. Thomas #1,110,Masters 55-59,M,B,Single-ply,58,,183.71,,,183.71,,1
P. Quartuccio,110,Masters 55-59,M,B,Single-ply,56,,145.15,,,145.15,,2
C. Summers,110,Masters 55-59,M,B,Single-ply,55,,145.15,,,145.15,,3
J. Young,110,Masters 60-64,M,B,Single-ply,62,,197.31,,,197.31,,1
R. Finkey,110,Submasters,M,B,Single-ply,39,,147.42,,,147.42,,1
Keith McDoughal,110,Open,M,B,Raw,29,,215.46,,,215.46,,1
R. Thomas #1,110,Masters 55-59,M,B,Raw,58,,183.71,,,183.71,,1
C. Summers,110,Masters 55-59,M,B,Raw,55,,145.15,,,145.15,,2
R. Finley,110,Submasters,M,B,Raw,39,,147.42,,,147.42,,1
L. Stevens,125,Masters 40-44,M,B,Single-ply,40,,188.24,,,188.24,,1
Fred Flack,125,Masters 55-59,M,B,Single-ply,55,,204.12,,,204.12,,1
D. Doyle,125,Masters 55-59,M,B,Single-ply,57,,179.17,,,179.17,,2
L. DeAngelis,125,Masters 55-59,M,B,Single-ply,59,,172.37,,,172.37,,3
R. Lee,125,Submasters,M,B,Single-ply,36,,188.24,,,188.24,,1
D. Doyle,125,Masters 55-59,M,B,Raw,57,,179.17,,,179.17,,1
Bill Bradford,125,Submasters,M,B,Raw,39,,183.71,,,183.71,,1
Geoff Resnik,145,Open,M,B,Single-ply,36,,249.48,,,249.48,,1
Jerry Tancil,145,Masters 40-44,M,B,Single-ply,44,,244.94,,,244.94,,1
Robert Churovia,145,Masters 55-59,M,B,Single-ply,55,,192.78,,,192.78,,1
Geoff Resnik,145,Submasters,M,B,Single-ply,36,,249.48,,,249.48,,1
Ed Brooks,145,Submasters,M,B,Single-ply,37,,217.72,,,217.72,,2
C. Bryant,145,Open,M,B,Raw,35,,229.06,,,229.06,,1
Robert Churovia,145,Masters 55-59,M,B,Raw,55,,192.78,,,192.78,,1
C. Bryant,145,Submasters,M,B,Raw,35,,229.06,,,229.06,,1
J. DeCrenzia,145,Submasters,M,B,Raw,38,,192.78,,,192.78,,2
Richard Schoenburger,145+,Open,M,B,Raw,31,,240.4,249.48,,240.4,,1
Doreen Trafton,67.5,Open,F,D,Single-ply,28,,,,161.03,161.03,,1
Ken Snell,56,Open,M,D,Single-ply,39,,,,185.97,185.97,,1
Mike Yost,67.5,Open,M,D,Single-ply,28,,,,204.12,204.12,,1
D. Whitney,67.5,Masters 50-54,M,D,Single-ply,53,,,,226.8,226.8,,1
R. Beyer,67.5,Masters 60-64,M,D,Raw,60,,,,158.76,158.76,,1
James Schall,67.5,Masters 70-74,M,D,Raw,70,,,,156.49,156.49,,1
J. Jones,67.5,Submasters,M,D,Raw,37,,,,176.9,176.9,,1
Keith Mason,82.5,Open,M,D,Single-ply,31,,,,294.84,294.84,,1
P. Roseman,82.5,Masters 60-64,M,D,Single-ply,60,,,,231.33,231.33,,1
S. Norwachi,82.5,Submasters,M,D,Single-ply,35,,,,244.94,244.94,,1
Curtis Warren,82.5,Open,M,D,Raw,,,,,294.84,294.84,,1
Bart Wood,90,Open,M,D,Single-ply,22,,,,283.5,283.5,,1
Greg Simmers,90,Open,M,D,Single-ply,32,,,,265.35,265.35,,2
Bart Wood,90,Juniors,M,D,Single-ply,22,,,,283.5,283.5,,1
Rosele Lewis Sr,90,Masters 40-44,M,D,Single-ply,41,,,,281.23,281.23,,1
J. Herlein,90,Masters 55-59,M,D,Single-ply,59,,,,244.94,244.94,,1
Burt Rosenfield,90,Masters 65-69,M,D,Single-ply,65,,,,215.46,215.46,,1
Burt Rosenfield,90,Open,M,D,Raw,65,,,,283.5,283.5,,1
P. Skinner,90,Masters 40-44,M,D,Single-ply,40,,,,226.8,226.8,,2
Tom Smith,90,Masters 55-59,M,D,Single-ply,57,,,,235.87,235.87,,2
Bill Remley,100,Masters 65-69,M,D,Single-ply,67,,,,222.26,222.26,,1
Greg Jurkowski,100,Open,M,D,Single-ply,34,,,,292.57,292.57,,1
Chris McQuay,100,Open,M,D,Raw,34,,,,235.87,235.87,,1
S. Maley,100,Masters 45-49,M,D,Raw,48,,,,170.1,170.1,,1
Robert Moretti,125,Open,M,D,Raw,34,,,,331.12,331.12,123.04,1
