Place,Name,Division,BodyweightKg,Squat1Kg,Squat2Kg,Squat3Kg,Best3SquatKg,Bench1Kg,Bench2Kg,Bench3Kg,Best3BenchKg,Deadlift1Kg,Deadlift2Kg,Deadlift3Kg,Best3DeadliftKg,TotalKg,WeightClassKg,Sex,CyrillicName,BirthYear,Equipment,Event,Age
1,Lada Pyzhyanova,Teen,39.4,65,-75,75,75,45,50,55,55,80,-95,-95,80,210,40,F,,1998,Single-ply,SBD,
2,Anna Stupko,Teen,39.6,60,-65,65,65,32.5,35,-37.5,35,55,62.5,70,70,170,40,F,,1997,Single-ply,SBD,
3,G. Ledeneva,Teen,38.5,50,-60,-60,50,30,-35,-35,30,50,60,-65,60,140,40,F,,1999,Single-ply,SBD,
1,G. Ermekbaeva,Teen,42.55,65,-70,-75,65,-40,40,-45,40,65,70,75,75,180,43,F,,1996,Single-ply,SBD,
2,A. Damen,Teen,42.6,65,70,-75,70,20,25,30,30,55,60,65,65,165,43,F,,1997,Single-ply,SBD,
3,K. Ledeneva,Teen,43,60,-70,-70,60,20,25,-30,25,50,60,-65,60,145,43,F,,1996,Single-ply,SBD,
1,A. Omarbek,Teen,45.85,75,82.5,90,90,30,-35,-37.5,30,75,80,-92.5,80,200,47,F,,1996,Single-ply,SBD,
2,Mariya Vovk,Teen,47,-60,60,70,70,32.5,37.5,-40,37.5,77.5,87.5,-102.5,87.5,195,47,F,,1997,Single-ply,SBD,
1,Yekaterina Barakovskaya,Open,46.6,75,85,90,90,40,45,47.5,47.5,70,80,90,90,227.5,47,F,,1995,Single-ply,SBD,
2,S. Iskakova,Open,46.1,45,52.5,57.5,57.5,60,65,-70,65,50,60,65,65,187.5,47,F,,1966,Single-ply,SBD,
3,K. Maurer,Open,46,30,40,50,50,30,-40,-40,30,50,60,-70,60,140,47,F,,1994,Single-ply,SBD,
1,L. Makhanova,Juniors,51.3,117.5,-122.5,122.5,122.5,65,-70,70,70,110,-142.5,142.5,142.5,335,52,F,,1993,Single-ply,SBD,
1,Anastasiya Kolesnikova,Open,51.65,150,160,165,165,70,75,-77.5,75,160,170,-180,170,410,52,F,,1985,Single-ply,SBD,
2,A. Bykova,Open,51.3,120,130,135,135,50,-60,60,60,125,140,-150,140,335,52,F,,1994,Single-ply,SBD,
3,I. Rashidova,Open,52,90,-105,125,125,50,-60,65,65,120,130,140,140,330,52,F,,1983,Single-ply,SBD,
DQ,Olga Cheremisina,Open,51.63,,,,,90,-95,100,100,,,,,,52,F,,1988,Single-ply,B,
DQ,Natalya Vytnova,Open,51.85,,,,,65,70,-75,70,,,,,,52,F,,1979,Single-ply,B,
1,A. Romanishina,Teen,57,90,95,110,110,40,45,-50,45,90,-100,110,110,265,57,F,,1998,Single-ply,SBD,
DQ,Diana Vedyushkina,Teen,55.5,,,,,75,82.5,85,85,,,,,,57,F,,1996,Single-ply,B,
1,Irina Minikhanova,Juniors,57,140,150,155,155,70,-75,75,75,125,135,145,145,375,57,F,,1993,Single-ply,SBD,
2,E. Abdrazykova,Juniors,56.4,130,-137.5,137.5,137.5,65,-72.5,-72.5,65,135,145,152.5,152.5,355,57,F,,1990,Single-ply,SBD,
1,Xeniya Khan,Open,57,160,165,-170,165,105,110,-115,110,160,-167.5,-170,160,435,57,F,,1987,Single-ply,SBD,
2,Irina Krotkova,Open,55.1,-170,170,-180,170,75,80,-90,80,160,-175,-175,160,410,57,F,,1973,Single-ply,SBD,
3,Mariya Cheredova,Open,57,145,152,-157.5,152,70,75,-77.5,75,145,-150,-160,145,372,57,F,,1986,Single-ply,SBD,
4,Tatyana Zhukova,Open,55.4,120,130,135,135,80,85,87.5,87.5,120,-130,-130,120,342.5,57,F,,1987,Single-ply,SBD,
DQ,Valentina Tarasova,Open,55.8,,,,,65,70,72.5,72.5,,,,,,57,F,,1975,Single-ply,B,
1,Zhadyra Kabieva,Juniors,63,150,160,165,165,105,115,-120,115,150,160,165,165,445,63,F,,1992,Single-ply,SBD,
2,Gulnur Bizhanova,Juniors,61.8,140,150,160,160,-80,80,85,85,140,150,-160,150,395,63,F,,1992,Single-ply,SBD,
DQ,V. Kolesnikova,Juniors,61,,,,,,,,,,,,,,63,F,,1994,Single-ply,SBD,
1,Marina Burik,Open,62.5,200,210,220,220,-100,105,110,110,185,200,210,210,540,63,F,,1993,Single-ply,SBD,
2,Valeriya Yaragina,Open,63,190,200,207.5,207.5,115,122.5,127.5,127.5,180,197.5,-210,197.5,532.5,63,F,,1993,Single-ply,SBD,
3,Svetlana Nazarenko,Open,62.9,160,170,175,175,110,120,125,125,160,170,-180,170,470,63,F,,1965,Single-ply,SBD,
4,E. Bazorkina,Open,61.9,137.5,150,,150,77.5,80,,80,152.5,-160,-160,152.5,382.5,63,F,,1983,Single-ply,SBD,
DQ,Valida Iskandarova,Open,63,,,,,,,,,,,,,,63,F,,1974,Single-ply,SBD,
1,Yuliya Guselnikova,Teen,69.2,150,160,180,180,70,80,90,90,140,150,160,160,430,72,F,Юлия Гусельникова,1994,Single-ply,SBD,
2,G. Akaeva,Teen,67.8,90,-100,-100,90,-60,60,67.5,67.5,120,122.5,125,125,282.5,72,F,,1994,Single-ply,SBD,
3,L. Kuznetsova,Teen,66.85,100,-110,120,120,40,-47.5,-50,40,100,-115,-115,100,260,72,F,,1997,Single-ply,SBD,
DQ,Odnosumova,Teen,67.59,120,-130,135,135,-50,-50,-50,,115,-120,120,120,,72,F,,1995,Single-ply,SBD,
1,Olga Kholyavko,Juniors,68,180,-190,-200,180,100,-105,105,105,165,175,180,180,465,72,F,,1989,Single-ply,SBD,
2,F. Alieva,Juniors,68.7,-127.5,132.5,-137.5,132.5,-62.5,-62.5,62.5,62.5,120,130,140,140,335,72,F,,1991,Single-ply,SBD,
3,Dinara Abduraimova,Juniors,70,-100,110,120,120,50,-60,60,60,110,120,130,130,310,72,F,,1993,Single-ply,SBD,
DQ,A. Arinova,Juniors,69.35,,,,,-60,-60,60,60,,,,,,72,F,,1994,Single-ply,B,
1,Yekaterina Kryukova,Open,69.4,180,195,205,205,125,132.5,-140,132.5,180,190,200,200,537.5,72,F,,1985,Single-ply,SBD,
2,Yelena Bykova,Open,67.5,160,-170,-180,160,90,-100,-100,90,150,170,175,175,425,72,F,,1986,Single-ply,SBD,
DQ,Anastasiya Guseva,Open,70.25,,,,,160,170,180,180,,,,,,72,F,,1989,Single-ply,B,
1,Valeriya Meretukova,Teen,75.3,150,160,170,170,70,-82.5,82.5,82.5,140,150,160,160,412.5,84,F,,1994,Single-ply,SBD,
2,Zh. Shynysova,Teen,74.8,70,90,95,95,35,40,-42.5,40,70,75,-80,75,210,84,F,,1994,Single-ply,SBD,
1,Natalya Kuzmina,Open,83.4,260,270,,270,150,-160,,150,240,250,,250,670,84,F,,1992,Single-ply,SBD,
2,Valeriya Shevchenko,Open,81.9,200,212.5,222.5,222.5,110,-120,120,120,210,225,-230,225,567.5,84,F,,1990,Single-ply,SBD,
3,Luiza Kvak,Open,72.3,-160,170,180,180,80,-85,90,90,150,165,180,180,450,84,F,,1992,Single-ply,SBD,
DQ,Zulfiya Zholmurzina,Teen,96,,,,,72.5,-80,82.5,82.5,,,,,,84+,F,,1995,Single-ply,B,
1,Aziza Abduraimova,Juniors,88.9,175,185,-195,185,110,115,-120,115,160,170,185,185,485,84+,F,,1989,Single-ply,SBD,
2,A. Nazarbekova,Juniors,90,150,160,-170,160,90,100,-110,100,140,150,160,160,420,84+,F,,1990,Single-ply,SBD,
1,Elena Telichko,Open,84.8,190,215,225,225,100,-107.5,107.5,107.5,190,200,210,210,542.5,84+,F,,1992,Single-ply,SBD,
2,Xeniya Okatenko,Open,96.4,205,217.5,230,230,-105,105,115,115,170,185,197.5,197.5,542.5,84+,F,,1994,Single-ply,SBD,
3,Zh. Kuchencherekova,Open,84.5,175,190,200,200,90,100,105,105,160,-170,180,180,485,84+,F,,1995,Single-ply,SBD,
1,Ilya Kotenyov,Teen,48,95,107.5,115,115,-50,55,-65,55,-110,115,130,130,300,48,M,,1998,Single-ply,SBD,
1,Ilya Kotenyov,Teen,48,95,107.5,115,115,50,55,-65,55,110,115,130,130,300,48,M,,1998,Single-ply,SBD,
2,E. Plakhotnikov,Teen,48,95,-107.5,107.5,107.5,40,52.5,57.5,57.5,105,112.5,130,130,295,48,M,,1998,Single-ply,SBD,
2,E. Sabyrgaliev,Teen,46.6,80,90,95,95,60,65,70,70,95,100,105,105,270,48,M,,1995,Single-ply,SBD,
3,I. Zyryanov,Teen,47.6,70,80,85,85,40,45,-47.5,45,80,90,95,95,225,48,M,,1998,Single-ply,SBD,
DQ,M. Muratzhanov,Teen,47.4,-90,-90,-90,,-50,-50,55,55,82.5,,,82.5,,48,M,,1997,Single-ply,SBD,
DQ,R. Bakhitzhanov,Teen,47.8,,,,,62.5,-67.5,-67.5,62.5,,,,,,48,M,,1998,Single-ply,B,
1,Anuar Amirtaev,Teen,52.2,125,137.5,150,150,70,77.5,-82.5,77.5,120,132.5,142.5,142.5,370,53,M,,1998,Single-ply,SBD,
2,Madiyar Nurzhanov,Teen,52.1,150,-160,-160,150,75,80,-82.5,80,125,132.5,-140,132.5,362.5,53,M,,1994,Single-ply,SBD,
3,V. Fink,Teen,51.6,130,-137.5,-140,130,70,-80,-80,70,130,-147.5,-147.5,130,330,53,M,,1997,Single-ply,SBD,
DQ,Alisher Makhmudov,Teen,53,,,,,97.5,105,-110,105,,,,,,53,M,,1995,Single-ply,B,
DQ,F. Bakirov,Teen,51.9,,,,,-90,90,-97.5,90,,,,,,53,M,,1995,Single-ply,B,
DQ,A. Abdykalikov,Teen,52.6,,,,,-90,90,-97.5,90,,,,,,53,M,,1994,Single-ply,B,
1,Kamil Latypov,Juniors,52,80,-85,-85,80,50,-55,-55,50,95,105,112.5,112.5,242.5,53,M,,1995,Single-ply,SBD,
2,Batyrkhan Yermagambetov,Juniors,52.8,60,70,72.5,72.5,35,37.5,40,40,70,80,90,90,202.5,53,M,,1999,Single-ply,SBD,
DQ,I. Tazhibav,Juniors,52.1,,,,,110,-115,-115,110,,,,,,53,M,,1990,Single-ply,B,
1,E. Shayakhmetov,Teen,58.4,180,190,200,200,100,105,110,110,180,190,-210,190,500,59,M,,1994,Single-ply,SBD,
2,N. Utemurat,Teen,58.35,-200,-200,200,200,105,110,-115,110,170,-185,-185,170,480,59,M,,1995,Single-ply,SBD,
3,A. Nurpeisov,Teen,57.95,140,155,160,160,90,95,-100,95,150,160,-167.5,160,415,59,M,,1994,Single-ply,SBD,
4,G. Ziberov,Teen,58.2,-150,-150,150,150,65,-72.5,-72.5,65,165,175,185,185,400,59,M,,1994,Single-ply,SBD,
5,V. Surskiy,Teen,58.7,150,-160,160,160,-85,85,90,90,150,-160,-170,150,400,59,M,,1995,Single-ply,SBD,
6,Tanat Aydyn,Teen,58.1,120,130,140,140,60,70,75,75,120,130,135,135,350,59,M,,1995,Single-ply,SBD,
7,M. Mitin,Teen,58.3,-85,85,-92.5,85,-80,85,90,90,100,135,142.5,142.5,317.5,59,M,,,Single-ply,SBD,
DQ,Abdulkarim Karaman,Teen,57.95,,,,,-160,160,-170,160,,,,,,59,M,,1994,Single-ply,B,
DQ,D. Tokmurzaev,Teen,57.7,,,,,107.5,-117.5,-117.5,107.5,,,,,,59,M,,1995,Single-ply,B,
DQ,D. Imakov,Teen,58.3,,,,,105,-112.5,-112.5,105,,,,,,59,M,,1996,Single-ply,B,
DQ,S. Artykov,Teen,58.3,,,,,-135,-135,-135,,,,,,,59,M,,1994,Single-ply,B,
1,I. Chirkov,Juniors,59,205,210,220,220,115,120,130,130,215,-230,230,230,580,59,M,,1991,Single-ply,SBD,
2,M. Gorlov,Juniors,58.05,180,190,200,200,120,130,132.5,132.5,165,175,185,185,517.5,59,M,,1989,Single-ply,SBD,
DQ,Samat Asanov,Juniors,58.25,-215,-225,-225,,,,,,,,,,,59,M,,1993,Single-ply,S,
DQ,D. Isaev,Juniors,59,,,,,-112.5,-117.5,-117.5,,,,,,,59,M,,1990,Single-ply,B,
1,Danis Amirov,Open,59,215,227.5,235,235,155,165,170,170,215,225,-235,225,630,59,M,,1993,Single-ply,SBD,
2,Daulet Aubakirov,Open,58.35,220,-235,-235,220,120,130,137.5,137.5,180,190,-200,190,547.5,59,M,,1974,Single-ply,SBD,
3,Dastan Idrishev,Open,58.15,215,225,230,230,115,-120,120,120,175,185,-190,185,535,59,M,,1986,Single-ply,SBD,
4,A. Tolmachev,Open,58.5,160,170,,170,120,130,135,135,-210,-210,210,210,515,59,M,,1990,Single-ply,SBD,
5,Evgeniy Zolotukhin,Open,58.5,177.5,190,195,195,-130,130,-140,130,170,-190,-190,170,495,59,M,,1988,Single-ply,SBD,
DQ,Andrey Shpitser,Open,57.3,,,,,160,170,172.5,172.5,,,,,,59,M,,1986,Single-ply,B,
DQ,E. Bayshagirov,Open,59,,,,,-115,120,130,130,,,,,,59,M,,1983,Single-ply,B,
DQ,Ravil Vakhitov,Open,52.5,,,,,100,105,-110,105,,,,,,59,M,,1988,Single-ply,B,
DQ,M. Baymekdinov,Open,59,,,,,-177.5,-180,-185,,,,,,,59,M,,1985,Single-ply,B,
DQ,Yuriy Nauman,Open,57.4,,,,,-160,-160,-160,,,,,,,59,M,,1986,Single-ply,B,
DQ,K. Dzhanarkulov,Open,57.95,,,,,-130,-140,-140,,,,,,,59,M,,1985,Single-ply,B,
1,Nurtay Turmuldinov,Masters 2,58.8,120,130,140,140,70,-80,80,80,130,140,150,150,370,59,M,,1961,Single-ply,SBD,
DQ,Irkin Iminov,Masters 2,52.1,,,,,105,-115,-115,105,,,,,,59,M,,1959,Single-ply,B,
DQ,Viktor Ronzhin,Masters 3,59,,,,,72.5,75,77.5,77.5,,,,,,59,M,,1947,Single-ply,B,
1,Nikolai Nekrasov,Masters 4,59,100,110,-120,110,55,60,65,65,125,130,135,135,310,59,M,,1939,Single-ply,SBD,
1,Anatoly Zhavoronkov,Teen,65,195,205,-210,205,135,140,142.5,142.5,-190,190,207.5,207.5,555,66,M,,1995,Single-ply,SBD,
2,E. Mynzhas,Teen,64.8,190,202.5,-212.5,202.5,-117.5,117.5,-120,117.5,190,205,222.5,222.5,542.5,66,M,,1994,Single-ply,SBD,
3,Turlibek Durmanov,Teen,63.4,190,200,-210,200,127.5,-132.5,132.5,132.5,190,200,-212.5,200,532.5,66,M,,1995,Single-ply,SBD,
4,G. Ubaydulaev,Teen,65.8,-170,170,180,180,90,100,-110,100,160,175,182.5,182.5,462.5,66,M,,1994,Single-ply,SBD,
5,I. Vakulin,Teen,65,105,112.5,120,120,92.5,-100,100,100,120,130,142.5,142.5,362.5,66,M,,1994,Single-ply,SBD,
DQ,Abzal Begaidarov,Teen,65.1,-185,-195,-195,,105,112.5,120,120,180,-192.5,192.5,192.5,,66,M,,1995,Single-ply,SBD,
DQ,T. Ermetov,Teen,62.4,,,,,70,80,-90,80,,,,,,66,M,,1996,Single-ply,B,
1,Andrei Dorokhov,Juniors,65.1,-200,205,220,220,160,167.5,-175,167.5,190,200,-222.5,200,587.5,66,M,,1992,Single-ply,SBD,
2,S. Satybaldiev,Juniors,65,-200,200,210,210,-120,135,-140,135,207.5,-212.5,-212.5,207.5,552.5,66,M,,1993,Single-ply,SBD,
3,S Zhusipov,Juniors,65.2,-200,205,-215,205,125,135,-142.5,135,-200,200,-210,200,540,66,M,,1993,Single-ply,SBD,
4,S. Kisilev,Juniors,64.9,160,-180,-200,160,120,130,-140,130,160,170,175,175,465,66,M,,1990,Single-ply,SBD,
5,A. Zhukov,Juniors,64.5,145,155,160,160,100,-105,105,105,160,170,180,180,445,66,M,,1993,Single-ply,SBD,
DQ,Eldos Yermakhanov,Juniors,64.1,,,,,160,167.5,172.5,172.5,,,,,,66,M,,1990,Single-ply,B,
DQ,Doskali Doskaliev,Juniors,65.1,,,,,145,152.5,157.5,157.5,,,,,,66,M,,1989,Single-ply,B,
DQ,S. Sagimbekov,Juniors,64,,,,,-137.5,-137.5,-137.5,,,,,,,66,M,,1990,Single-ply,B,
1,E. Sarana,Open,64.9,210,220,225,225,145,150,152.5,152.5,200,-232.5,-232.5,200,577.5,66,M,,1993,Single-ply,SBD,
2,F. Khodzhakulov,Open,65.4,170,190,200,200,-90,90,100,100,160,180,-200,180,480,66,M,,1991,Single-ply,SBD,
3,S. Iristaev,Open,66,-150,150,160,160,-97.5,-97.5,97.5,97.5,160,170,180,180,437.5,66,M,,1991,Single-ply,SBD,
4,E. Amurov,Open,66,-140,150,-160,150,80,90,-100,90,150,160,-170,160,400,66,M,,1995,Single-ply,SBD,
DQ,Alexandr Kim,Open,65,,,,,142.5,152.5,155,155,,,,,,66,M,,1985,Single-ply,B,
DQ,S. Abdualiev,Open,64,,,,,-152.5,-152.5,-152.5,,,,,,,66,M,,1987,Single-ply,B,
DQ,Alexandr Vaskov,Open,65.8,,,,,-192.5,-192.5,-192.5,,,,,,,66,M,,1986,Single-ply,B,
DQ,Almaz Ospanov,Open,65.4,,,,,-190,-190,-190,,,,,,,66,M,,1978,Single-ply,B,
1,A. Rodin,Masters 3,64.9,120,140,150,150,120,125,130,130,120,140,150,150,430,66,M,,1949,Single-ply,SBD,
1,Anatoliy Ustelimov,Masters 4,65.7,165,175,,175,85,-90,-90,85,160,172.5,,172.5,432.5,66,M,,1939,Single-ply,SBD,
1,Vadim Karakulin,Teen,73.45,220,-232.5,240,240,125,135,-140,135,225,237.5,247.5,247.5,622.5,74,M,,1995,Single-ply,SBD,
2,Igor Dolgikh,Teen,73.8,220,230,-240,230,140,150,160,160,215,225,-232.5,225,615,74,M,,1995,Single-ply,SBD,
3,V. Poletaev,Teen,73.1,220,235,-240,235,105,115,125,125,200,220,230,230,590,74,M,,1996,Single-ply,SBD,
4,A. Abdullaev,Teen,71.2,180,-190,-190,180,117.5,-122.5,122.5,122.5,175,185,192.5,192.5,495,74,M,,1995,Single-ply,SBD,
5,R. Kuntuganov,Teen,71.55,150,160,170,170,90,95,100,100,140,150,155,155,425,74,M,,1997,Single-ply,SBD,
6,A. Kabytaev,Teen,68.95,70,-80,-95,70,55,60,-65,60,70,85,100,100,230,74,M,,1994,Single-ply,SBD,
DQ,Keldimurat Rakhmanov,Teen,73.3,,,,,-165,165,-175,165,,,,,,74,M,,1995,Single-ply,B,
DQ,A. Shander,Teen,73.25,,,,,145,157.5,-165,157.5,,,,,,74,M,,1995,Single-ply,B,
DQ,Yerlan Smagulov,Teen,73.35,-265,-265,-265,,-125,132.5,137.5,137.5,-240,,,,,74,M,,1994,Single-ply,SBD,
1,Ulan Anuar,Juniors,73.35,270,-280,280,280,180,-190,190,190,260,280,-300,280,750,74,M,,1993,Single-ply,SBD,
2,Dmitriy Tsarenko,Juniors,73.35,260,-270,-275,260,170,-180,185,185,260,275,-290,275,720,74,M,,1991,Single-ply,SBD,
3,L. Zadorin,Juniors,73.25,230,240,245,245,155,-165,175,175,230,245,255,255,675,74,M,,1991,Single-ply,SBD,
4,Alisher Toleshbay,Juniors,72.9,230,-240,250,250,135,142.5,-147.5,142.5,235,245,-262.5,245,637.5,74,M,,1993,Single-ply,SBD,
5,B. Saitov,Juniors,73.9,240,255,-262.5,255,145,-152.5,-152.5,145,225,235,-247.5,235,635,74,M,,1991,Single-ply,SBD,
6,K. Nizamkhanov,Juniors,72.25,190,200,215,215,-145,150,155,155,200,210,-215,210,580,74,M,,1991,Single-ply,SBD,
7,D. Yuldashev,Juniors,73.7,190,205,210,210,-135,-135,135,135,200,-215,-215,200,545,74,M,,1991,Single-ply,SBD,
8,P. Zagranichnyy,Juniors,73.25,210,-230,230,230,-110,115,-125,115,180,-200,-200,180,525,74,M,,1993,Single-ply,SBD,
9,V. Denenburg,Juniors,72.4,-150,150,155,155,80,87.5,92.5,92.5,140,150,160,160,407.5,74,M,,1992,Single-ply,SBD,
DQ,Grigoriy Borodkin,Juniors,73.2,-260,-260,-260,,,,,,,,,,,74,M,,1991,Single-ply,S,
DQ,Roman Myshkov,Juniors,70,,,,,180,190,-200,190,,,,,,74,M,,1993,Single-ply,B,
DQ,Talgat Tlenbaev,Juniors,73.4,,,,,205,215,-220,215,,,,,,74,M,,1990,Single-ply,B,
1,Andrey Prokopenko,Open,73.7,300,-310,-310,300,185,-192.5,197.5,197.5,287.5,295,300,300,797.5,74,M,,1988,Single-ply,SBD,
2,Assyilzhan Almerdenov,Open,73.5,285,-290,-290,285,-180,185,-190,185,290,310,-327.5,310,780,74,M,,1985,Single-ply,SBD,
3,Aman Kapyshev,Open,72.55,280,-295,-300,280,180,-190,200,200,220,235,250,250,730,74,M,,1987,Single-ply,SBD,
4,Z. Manasypov,Open,71.1,-230,230,-240,230,125,-130,130,130,200,-210,-210,200,560,74,M,,1983,Single-ply,SBD,
5,Z. Mamedov,Open,70.8,170,180,-200,180,-100,100,115,115,180,-200,200,200,495,74,M,,1988,Single-ply,SBD,
6,Shamshin,Open,69.1,162.5,-170,-170,162.5,115,-122.5,-130,115,175,-190,-190,175,452.5,74,M,,1985,Single-ply,SBD,
7,A Abduzhabarov,Open,74,140,155,-162.5,155,100,-107.5,110,110,140,160,170,170,435,74,M,,1988,Single-ply,SBD,
DQ,Vyacheslav Muberyanov,Open,74,-230,-230,-230,,,,,,,,,,,74,M,,1995,Single-ply,S,
DQ,Pavel Marda,Open,73.1,280,-290,-295,280,180,-185,-185,180,-270,-270,-270,,,74,M,,1990,Single-ply,SBD,
DQ,Valeriy Kuzhakhmetov,Open,74,,,,,230,-235,-235,230,,,,,,74,M,,1988,Single-ply,B,
DQ,Konstantin Turko,Open,73.6,,,,,-190,200,210,210,,,,,,74,M,,1985,Single-ply,B,
DQ,A. Baglaev,Open,74,,,,,140,-150,-150,140,,,,,,74,M,,1985,Single-ply,B,
DQ,M. Bezkorovaynyy,Open,73.7,,,,,-192.5,-197.5,-197.5,,,,,,,74,M,,1985,Single-ply,B,
DQ,Oleg Butenko,Open,74,,,,,-240,,,,,,,,,74,M,,1983,Single-ply,B,
1,Vladimir Shkirman,Masters 1,73.9,180,190,200,200,100,105,107.5,107.5,200,220,242.5,242.5,550,74,M,,1964,Single-ply,SBD,
1,G Kadzhiev,Masters 2,74,160,,,160,90,,,90,80,,,80,330,74,M,,1957,Single-ply,SBD,
1,Aytzhan Isakov,Masters 3,72,120,140,-160,140,60,-70,,60,120,130,150,150,350,74,M,,1944,Single-ply,SBD,
1,P. Shubik,Masters 4,71.4,-100,100,-110,100,67.5,70,72.5,72.5,130,140,150,150,322.5,74,M,,1937,Single-ply,SBD,
1,V. Bulgakov,Teen,78.5,140,-160,160,160,90,100,110,110,150,-170,170,170,440,83,M,,1995,Single-ply,SBD,
2,R. Saipov,Teen,80,120,-130,130,130,100,-105,107.5,107.5,130,-150,155,155,392.5,83,M,,1993,Single-ply,SBD,
3,S. Petrusev,Teen,79,100,-110,120,120,90,-100,100,100,120,-140,-140,120,340,83,M,,1995,Single-ply,SBD,
4,A. Korobov,Teen,82.5,100,-115,115,115,85,-95,95,95,100,-115,115,115,325,83,M,,1994,Single-ply,SBD,
DQ,A. Kokh,Teen,79.75,,,,,110,-120,-120,110,,,,,,83,M,,1995,Single-ply,B,
1,Artem Platonov,Juniors,83,300,310,-320,310,185,195,-200,195,270,,,270,775,83,M,,1990,Single-ply,SBD,
2,Alexey Ukraintsev,Juniors,81.55,280,290,300,300,-160,-160,160,160,250,260,270,270,730,83,M,,1992,Single-ply,SBD,
3,V. Makarov,Juniors,83,-290,-290,290,290,170,180,-185,180,-240,240,257.5,257.5,727.5,83,M,,1992,Single-ply,SBD,
4,D. Koydan,Juniors,82,-260,265,275,275,145,160,170,170,-250,250,265,265,710,83,M,,1993,Single-ply,SBD,
5,B. Yuldashev,Juniors,78,220,240,-260,240,-130,130,140,140,-230,230,240,240,620,83,M,,1988,Single-ply,SBD,23
6,Ruslan Dzhetibaev,Juniors,80,200,-210,210,210,-160,160,172.5,172.5,180,190,-195,190,572.5,83,M,,1990,Single-ply,SBD,
7,Ildar Khayrullin,Juniors,83,180,190,200,200,-130,140,150,150,180,190,200,200,550,83,M,,,Single-ply,SBD,
DQ,Vladimir Folman,Juniors,81.7,280,-290,300,300,-190,-190,-190,,-280,,,,,83,M,,,Single-ply,SBD,
DQ,Roman Yakovlev,Juniors,82.5,-190,190,-210,190,-145,-145,-145,,-210,,,,,83,M,,1989,Single-ply,SBD,
DQ,Erbol Nauanov,Juniors,81.8,,,,,-240,240,245,245,,,,,,83,M,,1989,Single-ply,B,
DQ,Roman Ogorodnik,Juniors,82.25,,,,,220,227.5,242.5,242.5,,,,,,83,M,,1989,Single-ply,B,
DQ,Denis Kozlov,Juniors,81.9,,,,,220,-227.5,-227.5,220,,,,,,83,M,,1991,Single-ply,B,
DQ,Ya. Khotynskiy,Juniors,82.8,,,,,180,-195,195,195,,,,,,83,M,,1993,Single-ply,B,
DQ,Alexandr Emchenko,Juniors,82.05,,,,,-195,-195,195,195,,,,,,83,M,,1990,Single-ply,B,
DQ,A. Krechetov,Juniors,82.55,,,,,-135,135,-140,135,,,,,,83,M,,1993,Single-ply,B,
DQ,A. Semenikhin,Juniors,79.5,,,,,-185,-185,-185,,,,,,,83,M,,1990,Single-ply,B,
1,Konstantin Kobylyanskiy,Open,79.55,-290,290,310,310,170,182.5,-195,182.5,250,260,270,270,762.5,83,M,,1985,Single-ply,SBD,
2,D. Ivanchenko,Open,81.2,260,270,282.5,282.5,190,-195,200,200,240,255,267.5,267.5,750,83,M,,1987,Single-ply,SBD,
3,A. Iristaev,Open,81.8,-270,270,-280,270,165,170,-175,170,250,255,262.5,262.5,702.5,83,M,,1985,Single-ply,SBD,
4,S. Chinibekov,Open,82.65,-250,-255,255,255,185,-195,195,195,230,245,252.5,252.5,702.5,83,M,,1986,Single-ply,SBD,
5,Vadim Golovkin,Open,82.75,-260,-270,270,270,150,-160,-160,150,240,250,,250,670,83,M,,1979,Single-ply,SBD,
6,Alexei Nogay,Open,82.1,225,-255,-255,225,175,-195,-195,175,160,,,160,560,83,M,,1985,Single-ply,SBD,
7,Grigoriy Misyurin,Open,80,170,180,-190,180,-185,185,,185,190,-210,-210,190,555,83,M,,1983,Single-ply,SBD,
8,M. Khodzhakulov,Open,83,140,-155,160,160,-130,130,-140,130,140,-155,160,160,450,83,M,,1987,Single-ply,SBD,
DQ,Nikolai Shimanskiy,Open,81.5,240,-250,-250,240,-215,-215,-215,,220,230,240,240,,83,M,,1986,Single-ply,SBD,
DQ,M. Davletgaliev,Open,82.5,,,,,-260,260,265,265,,,,,,83,M,,1984,Single-ply,B,
DQ,Askar Shokhanov,Open,82.35,,,,,-260,260,-265,260,,,,,,83,M,,1983,Single-ply,B,
DQ,E. Aytmanov,Open,81.1,,,,,220,-230,-230,220,,,,,,83,M,,1979,Single-ply,B,
DQ,Yuriy Kim,Open,81.7,,,,,-200,-200,200,200,,,,,,83,M,,1988,Single-ply,B,
DQ,Baurzhan Musaev,Open,81,,,,,-195,195,,195,,,,,,83,M,,1986,Single-ply,B,
DQ,B. Saparbek,Open,78.3,,,,,-150,180,195,195,,,,,,83,M,,1986,Single-ply,B,
DQ,Kirill Ostanin,Open,83,,,,,-180,190,195,195,,,,,,83,M,,1988,Single-ply,B,
DQ,V. Oleschenko,Open,82,,,,,180,190,-195,190,,,,,,83,M,,1982,Single-ply,B,
DQ,D. Morozov,Open,82,,,,,-165,165,-177.5,165,,,,,,83,M,,1980,Single-ply,B,
DQ,Aleksandr Mayorov,Open,81,,,,,155,-165,-165,155,,,,,,83,M,,1975,Single-ply,B,
DQ,A. Krasko,Open,80.9,,,,,-165,-165,-165,,,,,,,83,M,,1982,Single-ply,B,
DQ,V. Krasko,Open,82.1,,,,,-200,-200,-200,,,,,,,83,M,,1973,Single-ply,B,
DQ,A. Ergeshov,Open,82.5,,,,,-210,-210,-210,,,,,,,83,M,,1984,Single-ply,B,
1,A. Verechev,Masters 1,82.6,160,170,-180,170,-130,130,-135,130,190,200,-210,200,500,83,M,,1966,Single-ply,SBD,
DQ,Mereke Sakalov,Masters 1,82.7,,,,,185,195,200,200,,,,,,83,M,,1969,Single-ply,B,
DQ,Rafail Valiullin,Masters 1,82.25,,,,,180,-190,190,190,,,,,,83,M,,1971,Single-ply,B,
DQ,E. Adaev,Masters 1,78.5,,,,,-130,-130,-130,,,,,,,83,M,,1971,Single-ply,B,
DQ,S. Erishuly,Masters 2,82,,,,,-170,-170,170,170,,,,,,83,M,,1958,Single-ply,B,
DQ,N. Lesbaev,Masters 2,77.65,,,,,90,95,102.5,102.5,,,,,,83,M,,1960,Single-ply,B,
1,Viktor Golovkin,Masters 3,82.5,-235,235,,235,100,,,100,-235,235,,235,570,83,M,,1949,Single-ply,SBD,
DQ,Daribay Ospanov,Masters 3,83,100,,,100,-165,-165,-165,,100,,,100,,83,M,,1949,Single-ply,SBD,
DQ,Robert Malimokov,Masters 4,81,,,,,80,87.5,92.5,92.5,,,,,,83,M,,1941,Single-ply,B,
1,Vladimir Kusov,Teen,90.15,230,240,250,250,-130,130,140,140,190,210,220,220,610,93,M,,1994,Single-ply,SBD,
2,A. Sabir,Teen,84.1,-210,215,225,225,125,135,140,140,215,-230,-230,215,580,93,M,,1995,Single-ply,SBD,
3,Dmitriy Bespalov,Teen,88.4,180,-190,190,190,95,105,-110,105,185,195,200,200,495,93,M,,1995,Single-ply,SBD,
4,A. Chuyko,Teen,84.4,155,165,170,170,120,125,-130,125,-180,180,190,190,485,93,M,,1994,Single-ply,SBD,
5,N. Shal,Teen,88.5,150,160,170,170,120,130,,130,145,152.5,175,175,475,93,M,,1995,Single-ply,SBD,
6,R. Velcheev,Teen,84.35,-150,150,-157.5,150,85,92.5,-97.5,92.5,152.5,160,170,170,412.5,93,M,,1995,Single-ply,SBD,
DQ,Yevgeniy Parshin,Teen,89.9,,,,,200,212.5,225,225,,,,,,93,M,,1995,Single-ply,B,
DQ,Zakir Naymanbayev,Teen,91.3,,,,,145,175,-195,175,,,,,,93,M,,1994,Single-ply,B,
1,Aleksandr Dovydenko,Juniors,92.9,300,320,330,330,190,200,205,205,300,310,,310,845,93,M,,1990,Single-ply,SBD,
3,P. Bolshenko,Juniors,90.75,-270,270,290,290,190,200,-207.5,200,262.5,280,287.5,287.5,777.5,93,M,,1990,Single-ply,SBD,
3,Yuriy Korneev,Juniors,92.7,280,290,300,300,150,160,172.5,172.5,-280,290,-307.5,290,762.5,93,M,,1990,Single-ply,SBD,
4,F. Sadykov,Juniors,83.4,210,-230,230,230,140,147.5,152.5,152.5,200,215,225,225,607.5,93,M,,1991,Single-ply,SBD,
5,A. Ungarov,Juniors,90.4,-220,220,240,240,120,127.5,-132.5,127.5,225,235,-245,235,602.5,93,M,,1993,Single-ply,SBD,
6,Ya. Dorofeev,Juniors,92.25,-180,190,205,205,-120,-120,120,120,180,-190,,180,505,93,M,,1991,Single-ply,SBD,
DQ,V. Paramonov,Juniors,83.5,-170,-170,-180,,-160,-160,-160,,,,,,,93,M,,1991,Single-ply,SB,
DQ,Igor Trifonov,Juniors,92,,,,,250,257.5,-265,257.5,,,,,,93,M,,1989,Single-ply,B,
DQ,Dmitriy Li,Juniors,91.65,,,,,245,255,-262.5,255,,,,,,93,M,,1991,Single-ply,B,
DQ,A. Menzheyu,Juniors,87.85,,,,,-152.5,-155,155,155,,,,,,93,M,,1992,Single-ply,B,
DQ,M. Kasenko,Juniors,90.3,,,,,140,145,155,155,,,,,,93,M,,1992,Single-ply,B,
1,Zalim Kuvambaev,Open,,-360,370,377.5,377.5,-245,252.5,-260,252.5,320,-330,330,330,960,93,M,,1986,Single-ply,SBD,
2,Ruslan Yarullin,Open,,350,-362.5,-370,350,240,250,255,255,315,325,-330,325,930,93,M,,1982,Single-ply,SBD,
3,P. Gavrilenko,Open,89.15,280,-295,-295,280,185,195,205,205,250,265,280,280,765,93,M,,1980,Single-ply,SBD,
4,Mukhan Medeubaev,Open,90.1,235,250,-260,250,192.5,-200,200,200,225,235,240,240,690,93,M,,1987,Single-ply,SBD,
5,V. Visaev,Open,84.2,-160,160,-180,160,120,-140,-140,120,170,,,170,450,93,M,,1987,Single-ply,SBD,
DQ,Denis Bondik,Open,92.1,-300,-310,-310,,220,230,235,235,270,,,270,,93,M,,1974,Single-ply,SBD,
DQ,Askar Sharapatov,Open,93,220,-230,245,245,-190,-200,-200,,-270,,,,,93,M,,1980,Single-ply,SBD,
DQ,Yevgeniy Galuzinskiy,Open,89,,,,,,,,,,,,,,93,M,,1992,Single-ply,SBD,
DQ,S. Scherbakov,Open,87.25,,,,,240,245,-260,245,,,,,,93,M,,1982,Single-ply,B,
DQ,T. Islamov,Open,92.2,,,,,212.5,222.5,227.5,227.5,,,,,,93,M,,1986,Single-ply,B,
DQ,Mikhail Khalaim,Open,90.5,,,,,-222.5,-222.5,227.5,227.5,,,,,,93,M,,1983,Single-ply,B,
DQ,E. Leys,Open,91.7,,,,,215,222.5,-232.5,222.5,,,,,,93,M,,1979,Single-ply,B,
DQ,A. Kairgaliev,Open,90.75,,,,,-212.5,212.5,220,220,,,,,,93,M,,1979,Single-ply,B,
DQ,A. Tokhtiev,Open,93,,,,,200,-212.5,212.5,212.5,,,,,,93,M,,1988,Single-ply,B,
DQ,A. Kaschiev,Open,92,,,,,200,-212.5,-212.5,200,,,,,,93,M,,1988,Single-ply,B,
DQ,S. Salavatov,Open,92.3,,,,,190,-202.5,-212.5,190,,,,,,93,M,,1980,Single-ply,B,
DQ,Ruslan Sadykov,Open,92.35,,,,,-240,-240,,,,,,,,93,M,,1986,Single-ply,B,
DQ,G. Ber,Open,91.5,,,,,-230,-230,-230,,,,,,,93,M,,1979,Single-ply,B,
DQ,Vladimir Menshikov,Open,92.4,,,,,-205,-205,-212.5,,,,,,,93,M,,1985,Single-ply,B,
DQ,K. Kasap,Open,92.5,,,,,-212.5,-212.5,-212.5,,,,,,,93,M,,1983,Single-ply,B,
DQ,M. Mamedov,Open,90.3,,,,,-195,-195,-195,,,,,,,93,M,,1984,Single-ply,B,
1,Sergey Shuklin,Masters 1,92.7,220,230,240,240,130,140,150,150,220,240,-250,240,630,93,M,,1964,Single-ply,SBD,
DQ,S. Vedyushkin,Masters 1,91.7,,,,,200,207.5,210,210,,,,,,93,M,,1971,Single-ply,B,
1,A. Kozlov,Teen,93.5,190,210,-215,210,120,-130,-130,120,170,180,190,190,520,105,M,,1994,Single-ply,SBD,
2,M. Ryabchinskiy,Teen,96,170,180,190,190,110,-117.5,-117.5,110,150,-160,165,165,465,105,M,,1995,Single-ply,SBD,
3,D. Molchanov,Teen,99.5,160,165,-180,165,80,100,-110,100,155,170,-200,170,435,105,M,,1994,Single-ply,SBD,
4,D. Kokhan,Teen,105,-150,-150,150,150,80,90,-100,90,140,-150,-150,140,380,105,M,,1996,Single-ply,SBD,
DQ,Alexandr Starikov,Teen,103,-240,-240,,,120,127.5,132.5,132.5,,,,,,105,M,,1994,Single-ply,SB,
1,Evgeniy Krasnovskiy,Juniors,100.3,270,-282.5,282.5,282.5,210,-220,-220,210,260,-297.5,297.5,297.5,790,105,M,,1990,Single-ply,SBD,
DQ,Arslan Suyunshaliyev,Juniors,97.2,,,,,-250,250,260,260,,,,,,105,M,,1989,Single-ply,B,
DQ,Roman Pischaev,Juniors,97.25,,,,,210,220,-225,220,,,,,,105,M,,1989,Single-ply,B,
DQ,A. Uteshev,Juniors,103.5,,,,,170,185,-195,185,,,,,,105,M,,1991,Single-ply,B,
DQ,Artur Kim,Juniors,101.8,,,,,-225,-225,-225,,,,,,,105,M,,1989,Single-ply,B,
1,Nurlan Yeshmakhanov,Open,105,380,-400,400,400,260,-270,270,270,-330,330,,330,1000,105,M,,1990,Single-ply,SBD,
2,Alexandr Miroshnikov,Open,100.2,300,315,322.5,322.5,-225,225,235,235,280,-290,-290,280,837.5,105,M,,1987,Single-ply,SBD,
3,Dmitriy Radchuk,Open,98,275,285,292.5,292.5,190,-200,200,200,280,290,300,300,792.5,105,M,,1987,Single-ply,SBD,
4,A. Abramov,Open,105,300,,,300,190,,,190,300,,,300,790,105,M,,1975,Single-ply,SBD,
5,A. Muratov,Open,103.9,280,300,-320,300,217.5,225,-230,225,235,255,-275,255,780,105,M,,1976,Single-ply,SBD,
6,Yuriy Snegurov,Open,98.1,170,-190,200,200,160,172.5,,172.5,190,,,190,562.5,105,M,,1981,Single-ply,SBD,
DQ,B. Kadyrbekov,Open,105,-300,-300,-300,,,,,,,,,,,105,M,,1986,Single-ply,S,
DQ,E. Kuznetsov,Open,98.2,280,-300,-320,280,180,-190,-190,180,,,,,,105,M,,1975,Single-ply,SB,
DQ,Sergei Vaigant,Open,100.9,,,,,-290,-290,310,310,,,,,,105,M,,1989,Single-ply,B,
DQ,Andrey Sazonov,Open,104,,,,,290,300,307.5,307.5,,,,,,105,M,,1980,Single-ply,B,
DQ,Denis Rybka,Open,99.8,,,,,-270,-270,270,270,,,,,,105,M,,1985,Single-ply,B,
DQ,Alexei Fedyaev,Open,102.6,,,,,220,230,235,235,,,,,,105,M,,1976,Single-ply,B,
DQ,Yevgeniy Rakhimov,Open,105,,,,,210,-225,-225,210,,,,,,105,M,,1987,Single-ply,B,
DQ,Gennadiy Krechin,Open,100.7,,,,,-252.5,-252.5,-255,,,,,,,105,M,,1974,Single-ply,B,
DQ,O. Ivanov,Open,97.7,,,,,-210,-210,-210,,,,,,,105,M,,1978,Single-ply,B,
DQ,M. Dobrovolskiy,Open,104.3,,,,,-210,-210,-210,,,,,,,105,M,,1986,Single-ply,B,
1,Gennadiy Melnik,Masters 1,100.9,290,310,320,320,-180,-185,185,185,270,285,,285,790,105,M,,1967,Single-ply,SBD,
2,A. Chistov,Masters 1,102.6,270,290,302.5,302.5,170,180,185,185,220,240,-255,240,727.5,105,M,,1966,Single-ply,SBD,
DQ,Andrey Letyagin,Masters 1,100.8,,,,,225,235,242.5,242.5,,,,,,105,M,,1963,Single-ply,B,
DQ,Andrei Altaybaev,Masters 1,102.6,,,,,-210,217.5,-225,217.5,,,,,,105,M,,1972,Single-ply,B,
DQ,B. Kauakov,Masters 1,94.5,,,,,-180,-180,-180,,,,,,,105,M,,1967,Single-ply,B,
1,Ulugbek Ermetov,Masters 2,104,190,200,210,210,-180,180,-185,180,140,160,,160,550,105,M,,1959,Single-ply,SBD,
DQ,V. Gudovschikov,Masters 2,103.1,,,,,-130,137.5,-145,137.5,,,,,,105,M,,1955,Single-ply,B,
DQ,Vasiliy Ovechkin,Masters 3,99,,,,,95,100,105,105,,,,,,105,M,,1950,Single-ply,B,
1,Miras Akpalenov,Teen,113.3,290,300,-310,300,135,140,150,150,210,220,230,230,680,120,M,,1995,Single-ply,SBD,
1,Aleksey Pankrashev,Juniors,110.9,350,365,372.5,372.5,-230,-230,230,230,310,-320,320,320,922.5,120,M,,1990,Single-ply,SBD,
2,Mars Akpalenov,Juniors,114.7,300,-310,-320,300,-160,-160,160,160,240,250,,250,710,120,M,,1991,Single-ply,SBD,
DQ,Eduard Kabdeshev,Juniors,109.5,,,,,250,260,-265,260,,,,,,120,M,,1989,Single-ply,B,
1,Vladimir Golubev,Open,113.2,410,-422.5,,410,230,240,250,250,320,342.5,,342.5,1002.5,120,M,,1986,Single-ply,SBD,
2,E. Evdokimov,Open,118,360,-372.5,375,375,225,235,242.5,242.5,300,-305,-305,300,917.5,120,M,,1980,Single-ply,SBD,
3,B. Meyrmidi,Open,114.3,315,-330,-350,315,180,-185,190,190,280,295,-302.5,295,800,120,M,,1988,Single-ply,SBD,
DQ,Evgeniy Goldobov,Open,117.5,,,,,270,-280,-280,270,,,,,,120,M,,1987,Single-ply,B,
DQ,Aidar Koshkarov,Open,115.4,,,,,265,270,-280,270,,,,,,120,M,,1976,Single-ply,B,
DQ,A. Mekhdiev,Open,115.7,,,,,-250,260,-272.5,260,,,,,,120,M,,1976,Single-ply,B,
DQ,I. Mislyaev,Open,110.5,,,,,-235,-235,235,235,,,,,,120,M,,1977,Single-ply,B,
DQ,R. Kushyalov,Open,118,,,,,-270,,,,,,,,,120,M,,1979,Single-ply,B,
DQ,Alexandr Zaytsev,Open,115.9,,,,,210,-235,-235,210,,,,,,120,M,,1987,Single-ply,B,
DQ,Viktor Buyko,Open,106,,,,,-260,-260,-270,,,,,,,120,M,,1985,Single-ply,B,
1,Serik Tukushev,Masters 1,106.5,150,170,190,190,135,160,-180,160,170,190,200,200,550,120,M,,1967,Single-ply,SBD,
DQ,A. Zhechev,Masters 1,108.3,,,,,-185,190,200,200,,,,,,120,M,,1966,Single-ply,B,
DQ,A. Zhuravlev,Masters 2,115.3,,,,,180,190,200,200,,,,,,120,M,,1959,Single-ply,B,
1,Stanislav Markov,Teen,133.4,260,,,260,-200,200,-215,200,150,,,150,610,120+,M,,1994,Single-ply,SBD,
2,Zhaksybai Rakhmet,Teen,120.2,210,-225,225,225,100,-140,140,140,-200,200,-215,200,565,120+,M,,1994,Single-ply,SBD,
1,Ivan Nikitin,Juniors,121,290,305,-312.5,305,190,205,215,215,250,275,-290,275,795,120+,M,,1992,Single-ply,SBD,
2,D. Vorfalameev,Juniors,122,190,200,210,210,150,160,167.5,167.5,190,200,210,210,587.5,120+,M,,1991,Single-ply,SBD,
DQ,D. Mirkhaydarov,Juniors,128.3,,,,,210,-220,220,220,,,,,,120+,M,,1990,Single-ply,B,
1,Sergey Semenets,Open,139.8,-375,375,,375,-250,250,,250,340,360,-380,360,985,120+,M,,1977,Single-ply,SBD,
2,Anatoly Sinyavsky,Open,122,270,282.5,295,295,180,185,200,200,300,320,-340,320,815,120+,M,,1980,Single-ply,SBD,
3,Aleksandr Kim,Open,120.5,310,322.5,-330,322.5,180,190,-195,190,300,-315,-315,300,812.5,120+,M,,1985,Single-ply,SBD,
4,D. Tashanov,Open,121,250,260,270,270,160,170,-180,170,290,-300,-330,290,730,120+,M,,1984,Single-ply,SBD,
DQ,R. Nasipov,Open,121,,,,,-230,235,-245,235,,,,,,120+,M,,1982,Single-ply,B,
DQ,E. Ermyshev,Open,125.5,,,,,-280,-280,-280,,,,,,,120+,M,,1978,Single-ply,B,
1,Sergei Tymchenko,Masters 1,126.9,280,290,350,350,90,110,190,190,180,200,320,320,860,120+,M,,1970,Single-ply,SBD,
